<?xml version='1.0' encoding='utf-8'?>
<!DOCTYPE svg PUBLIC '-//W3C//DTD SVG 1.1//EN' 'http://www.w3.org/Graphics/SVG/1.1/DTD/svg11.dtd'>
<svg xmlns='http://www.w3.org/2000/svg' viewBox='10 101 1072 371' xmlns:xlink='http://www.w3.org/1999/xlink' width='1072.0px' font-size='13' font-family='Arial, LiberationSans' version='1.1' height='371.0px'>
  <defs>
<style type='text/css'><![CDATA[svg text {text-rendering: geometricPrecision;}]]></style>    <linearGradient y1='0.0%' x1='0.0%' y2='100.0%' x2='0.0%' id='aea22882-d8d2-4201-ab78-442c84d44a60' spreadMethod='pad'>
      <stop stop-opacity='1' offset='0' stop-color='rgb(255, 255, 255)'/>
      <stop stop-opacity='1' offset='100' stop-color='rgb(238, 238, 238)'/>
    </linearGradient>
    <linearGradient y1='0.0%' x1='0.0%' y2='100.0%' x2='0.0%' id='9a6fe9ea-3682-4a24-b931-4428169f5230' spreadMethod='pad'>
      <stop stop-opacity='1' offset='0' stop-color='rgb(255, 255, 255)'/>
      <stop stop-opacity='1' offset='100' stop-color='rgb(238, 238, 238)'/>
    </linearGradient>
    <linearGradient y1='0.0%' x1='0.0%' y2='100.0%' x2='0.0%' id='3abb248c-9db9-493b-a558-9a1dd4beaf64' spreadMethod='pad'>
      <stop stop-opacity='1' offset='0' stop-color='rgb(255, 255, 255)'/>
      <stop stop-opacity='1' offset='100' stop-color='rgb(238, 238, 238)'/>
    </linearGradient>
    <linearGradient y1='0.0%' x1='0.0%' y2='100.0%' x2='0.0%' id='fd112d78-2da3-4166-9b90-312fd8065c1e' spreadMethod='pad'>
      <stop stop-opacity='1' offset='0' stop-color='rgb(255, 255, 255)'/>
      <stop stop-opacity='1' offset='100' stop-color='rgb(238, 238, 238)'/>
    </linearGradient>
    <linearGradient y1='0.0%' x1='0.0%' y2='100.0%' x2='0.0%' id='54699a72-0cbb-416d-a95c-5309e2bd6085' spreadMethod='pad'>
      <stop stop-opacity='1' offset='0' stop-color='rgb(255, 255, 255)'/>
      <stop stop-opacity='1' offset='100' stop-color='rgb(238, 238, 238)'/>
    </linearGradient>
    <linearGradient y1='0.0%' x1='0.0%' y2='100.0%' x2='0.0%' id='22222076-fa64-4405-923e-8e9cf8b75740' spreadMethod='pad'>
      <stop stop-opacity='1' offset='0' stop-color='rgb(255, 255, 255)'/>
      <stop stop-opacity='1' offset='100' stop-color='rgb(238, 238, 238)'/>
    </linearGradient>
    <linearGradient y1='0.0%' x1='0.0%' y2='100.0%' x2='0.0%' id='1406f01b-401f-457f-bdbc-081a2a8c7b10' spreadMethod='pad'>
      <stop stop-opacity='1' offset='0' stop-color='rgb(255, 255, 255)'/>
      <stop stop-opacity='1' offset='100' stop-color='rgb(238, 238, 238)'/>
    </linearGradient>
    <linearGradient y1='0.0%' x1='0.0%' y2='100.0%' x2='0.0%' id='e3be87d9-1db3-449c-85b4-4af7b5a3d7f9' spreadMethod='pad'>
      <stop stop-opacity='1' offset='0' stop-color='rgb(255, 255, 255)'/>
      <stop stop-opacity='1' offset='100' stop-color='rgb(238, 238, 238)'/>
    </linearGradient>
    <linearGradient y1='0.0%' x1='0.0%' y2='100.0%' x2='0.0%' id='07fd2d69-c96d-47ac-aea7-a810301bd676' spreadMethod='pad'>
      <stop stop-opacity='1' offset='0' stop-color='rgb(255, 255, 255)'/>
      <stop stop-opacity='1' offset='100' stop-color='rgb(238, 238, 238)'/>
    </linearGradient>
    <linearGradient y1='0.0%' x1='0.0%' y2='100.0%' x2='0.0%' id='80cdd454-ae87-4e31-a995-be9e082ff13a' spreadMethod='pad'>
      <stop stop-opacity='1' offset='0' stop-color='rgb(255, 255, 255)'/>
      <stop stop-opacity='1' offset='100' stop-color='rgb(238, 238, 238)'/>
    </linearGradient>
    <linearGradient y1='0.0%' x1='0.0%' y2='100.0%' x2='0.0%' id='75bd45e7-d574-4927-9042-b9da5f53f135' spreadMethod='pad'>
      <stop stop-opacity='1' offset='0' stop-color='rgb(255, 255, 255)'/>
      <stop stop-opacity='1' offset='100' stop-color='rgb(238, 238, 238)'/>
    </linearGradient>
    <linearGradient y1='0.0%' x1='0.0%' y2='100.0%' x2='0.0%' id='8e8ae0f0-a99a-4e2b-982b-a3a16ae15613' spreadMethod='pad'>
      <stop stop-opacity='1' offset='0' stop-color='rgb(255, 255, 255)'/>
      <stop stop-opacity='1' offset='100' stop-color='rgb(238, 238, 238)'/>
    </linearGradient>
  </defs>
  <desc>UsecaseDiagram</desc>
  <g transform='translate(923.0,131.0)' id='_aox_IKD6EDyusswajhru7w'>
    <ellipse cx='64.5' cy='40.0' rx='64.5' ry='40.0' stroke-width='1.0' fill='url(#aea22882-d8d2-4201-ab78-442c84d44a60)' stroke='rgb(187, 187, 187)' look='allInOne'/>
    <g transform='translate(0.0,27.0)'>
      <g transform='translate(0.0,0.0)'>
        <text font-weight='bold' text-anchor='middle' x='64.5' y='13.0' font-size='13' fill='rgb(3, 54, 86)'>Create chess pieces</text>
        <text font-weight='bold' text-anchor='middle' x='64.5' y='26.0' font-size='13' fill='rgb(3, 54, 86)'>in some Position</text>
      </g>
    </g>
  </g>
  <g transform='translate(40.0,131.0)' id='_gON9oKD6EDyusswajhru7w'>
    <ellipse cx='69.5' cy='40.0' rx='69.5' ry='40.0' stroke-width='1.0' fill='url(#9a6fe9ea-3682-4a24-b931-4428169f5230)' stroke='rgb(187, 187, 187)' look='allInOne'/>
    <g transform='translate(0.0,27.0)'>
      <g transform='translate(0.0,0.0)'>
        <text font-weight='bold' text-anchor='middle' x='69.5' y='13.0' font-size='13' fill='rgb(3, 54, 86)'>Check if is this legal</text>
        <text font-weight='bold' text-anchor='middle' x='69.5' y='26.0' font-size='13' fill='rgb(3, 54, 86)'>move for Knight</text>
      </g>
    </g>
  </g>
  <g transform='translate(216.0,131.0)' id='_kpAt8aD6EDyusswajhru7w'>
    <ellipse cx='75.5' cy='40.0' rx='75.5' ry='40.0' stroke-width='1.0' fill='url(#3abb248c-9db9-493b-a558-9a1dd4beaf64)' stroke='rgb(187, 187, 187)' look='allInOne'/>
    <g transform='translate(0.0,27.0)'>
      <g transform='translate(0.0,0.0)'>
        <text font-weight='bold' text-anchor='middle' x='75.5' y='13.0' font-size='13' fill='rgb(3, 54, 86)'>Check if is this legal</text>
        <text font-weight='bold' text-anchor='middle' x='75.5' y='26.0' font-size='13' fill='rgb(3, 54, 86)'>move for Rook</text>
      </g>
    </g>
  </g>
  <g transform='translate(569.0,136.0)' id='_l6qjEaD6EDyusswajhru7w'>
    <ellipse cx='69.0' cy='35.0' rx='69.0' ry='35.0' stroke-width='1.0' fill='url(#fd112d78-2da3-4166-9b90-312fd8065c1e)' stroke='rgb(187, 187, 187)' look='allInOne'/>
    <g transform='translate(0.0,22.0)'>
      <g transform='translate(0.0,0.0)'>
        <text font-weight='bold' text-anchor='middle' x='69.0' y='13.0' font-size='13' fill='rgb(3, 54, 86)'>Check if is this legal</text>
        <text font-weight='bold' text-anchor='middle' x='69.0' y='26.0' font-size='13' fill='rgb(3, 54, 86)'>move for Queen</text>
      </g>
    </g>
  </g>
  <g transform='translate(410.0,136.0)' id='_mMSekaD6EDyusswajhru7w'>
    <ellipse cx='69.0' cy='35.0' rx='69.0' ry='35.0' stroke-width='1.0' fill='url(#54699a72-0cbb-416d-a95c-5309e2bd6085)' stroke='rgb(187, 187, 187)' look='allInOne'/>
    <g transform='translate(0.0,22.0)'>
      <g transform='translate(0.0,0.0)'>
        <text font-weight='bold' text-anchor='middle' x='69.0' y='13.0' font-size='13' fill='rgb(3, 54, 86)'>Check if is this legal</text>
        <text font-weight='bold' text-anchor='middle' x='69.0' y='26.0' font-size='13' fill='rgb(3, 54, 86)'>move for Bishop</text>
      </g>
    </g>
  </g>
  <g transform='translate(750.0,131.0)' id='_qMu1MKD6EDyusswajhru7w'>
    <ellipse cx='70.0' cy='40.0' rx='70.0' ry='40.0' stroke-width='1.0' fill='url(#22222076-fa64-4405-923e-8e9cf8b75740)' stroke='rgb(187, 187, 187)' look='allInOne'/>
    <g transform='translate(0.0,27.0)'>
      <g transform='translate(0.0,0.0)'>
        <text font-weight='bold' text-anchor='middle' x='70.0' y='13.0' font-size='13' fill='rgb(3, 54, 86)'>Check if is this legal</text>
        <text font-weight='bold' text-anchor='middle' x='70.0' y='26.0' font-size='13' fill='rgb(3, 54, 86)'>move for King</text>
      </g>
    </g>
  </g>
  <g transform='translate(569.0,362.0)' id='_x83JoKD6EDyusswajhru7w'>
    <circle r='6.5' cx='20.0' cy='8.5' stroke-width='1.5' fill='rgb(255, 255, 255)' stroke='rgb(136, 136, 136)' look='allInOne'/>
    <line y1='15.0' x1='20.0' y2='45.5' x2='20.0' stroke-width='1.5' fill='rgb(255, 255, 255)' stroke='rgb(136, 136, 136)' look='allInOne'/>
    <line y1='26.0' x1='6.0' y2='26.0' x2='34.0' stroke-width='1.5' fill='rgb(255, 255, 255)' stroke='rgb(136, 136, 136)' look='allInOne'/>
    <line y1='45.5' x1='20.0' y2='63.0' x2='9.2' stroke-width='1.5' fill='rgb(255, 255, 255)' stroke='rgb(136, 136, 136)' look='allInOne'/>
    <line y1='45.5' x1='20.0' y2='63.0' x2='30.799999999999997' fill='rgb(255, 255, 255)' stroke='rgb(136, 136, 136)' look='allInOne'/>
    <text text-anchor='middle' x='20.0' y='78.0' font-size='13' font-style='normal' fill='rgb(0, 0, 0)'>Some user</text>
  </g>
  <g transform='translate(230.0,313.0)' id='_0R1c8KD6EDyusswajhru7w'/>
  <g transform='translate(318.0,314.0)' id='_0mcbAKD6EDyusswajhru7w'/>
  <g transform='translate(388.0,299.0)' id='_06KoQKD6EDyusswajhru7w'/>
  <g transform='translate(473.0,299.0)' id='_1LGnQKD6EDyusswajhru7w'/>
  <g transform='translate(557.0,312.0)' id='_1dFvIKD6EDyusswajhru7w'/>
  <g transform='translate(628.0,314.0)' id='_1xEbEKD6EDyusswajhru7w'/>
  <g id='_0RvWUKD6EDyusswajhru7w'>
    <line y1='204.0' x1='179.0' y2='392.0' x2='569.0' id='_0RwkcqD6EDyusswajhru7w' stroke-width='1.0' fill='none' stroke='rgb(0, 0, 0)'/>
  </g>
  <g id='_0mW7cKD6EDyusswajhru7w'>
    <line y1='211.0' x1='343.0' y2='386.0' x2='569.0' id='_0mYwoKD6EDyusswajhru7w' stroke-width='1.0' fill='none' stroke='rgb(0, 0, 0)'/>
  </g>
  <g id='_06FvwKD6EDyusswajhru7w'>
    <line y1='206.0' x1='495.0' y2='362.0' x2='569.0' id='_06G94qD6EDyusswajhru7w' stroke-width='1.0' fill='none' stroke='rgb(0, 0, 0)'/>
  </g>
  <g id='_1LBHsKD6EDyusswajhru7w'>
    <line y1='206.0' x1='630.0' y2='362.0' x2='597.0' id='_1LC84qD6EDyusswajhru7w' stroke-width='1.0' fill='none' stroke='rgb(0, 0, 0)'/>
  </g>
  <g id='_1dA2oKD6EDyusswajhru7w'>
    <line y1='211.0' x1='780.0' y2='382.0' x2='609.0' id='_1dCr0KD6EDyusswajhru7w' stroke-width='1.0' fill='none' stroke='rgb(0, 0, 0)'/>
  </g>
  <g id='_1xAwsKD6EDyusswajhru7w'>
    <line y1='208.0' x1='923.0' y2='390.0' x2='609.0' id='_1xB-0qD6EDyusswajhru7w' stroke-width='1.0' fill='none' stroke='rgb(0, 0, 0)'/>
  </g>
</svg>
